﻿  HomeWork13.cpp
C:\Users\leymir\source\repos\HomeWork13\HomeWork13\Helpers.h(5,12): warning C4244: 'return': conversion from 'double' to 'int', possible loss of data
  HomeWork13.vcxproj -> C:\Users\leymir\source\repos\HomeWork13\x64\Debug\HomeWork13.exe
